<?xml version="1.0" encoding="UTF-8"?>
<!-- Do not edit this file with editors other than draw.io -->
<!DOCTYPE svg PUBLIC "-//W3C//DTD SVG 1.1//EN" "http://www.w3.org/Graphics/SVG/1.1/DTD/svg11.dtd">
<svg xmlns="http://www.w3.org/2000/svg" xmlns:xlink="http://www.w3.org/1999/xlink" version="1.1" width="51px" height="51px" viewBox="-0.5 -0.5 51 51" content="&lt;mxfile host=&quot;Electron&quot; modified=&quot;2024-05-27T22:32:15.915Z&quot; agent=&quot;Mozilla/5.0 (Windows NT 10.0; Win64; x64) AppleWebKit/537.36 (KHTML, like Gecko) draw.io/24.4.8 Chrome/124.0.6367.207 Electron/30.0.6 Safari/537.36&quot; version=&quot;24.4.8&quot; etag=&quot;jVzqvO8YBvQAiO5wvGKv&quot; type=&quot;device&quot; scale=&quot;1&quot; border=&quot;0&quot;&gt;&#10;  &lt;diagram name=&quot;Page-1&quot; id=&quot;MAx3TugKVDuA34ta-eIJ&quot;&gt;&#10;    &lt;mxGraphModel dx=&quot;519&quot; dy=&quot;352&quot; grid=&quot;1&quot; gridSize=&quot;10&quot; guides=&quot;1&quot; tooltips=&quot;1&quot; connect=&quot;1&quot; arrows=&quot;1&quot; fold=&quot;1&quot; page=&quot;1&quot; pageScale=&quot;1&quot; pageWidth=&quot;827&quot; pageHeight=&quot;1169&quot; math=&quot;0&quot; shadow=&quot;0&quot;&gt;&#10;      &lt;root&gt;&#10;        &lt;mxCell id=&quot;0&quot; /&gt;&#10;        &lt;mxCell id=&quot;1&quot; parent=&quot;0&quot; /&gt;&#10;        &lt;mxCell id=&quot;2&quot; value=&quot;&quot; style=&quot;sketch=0;points=[[0.015,0.015,0],[0.985,0.015,0],[0.985,0.985,0],[0.015,0.985,0],[0.25,0,0],[0.5,0,0],[0.75,0,0],[1,0.25,0],[1,0.5,0],[1,0.75,0],[0.75,1,0],[0.5,1,0],[0.25,1,0],[0,0.75,0],[0,0.5,0],[0,0.25,0]];verticalLabelPosition=bottom;html=1;verticalAlign=top;aspect=fixed;align=center;pointerEvents=1;shape=mxgraph.cisco19.rect;prIcon=cisco_dna_center;fillColor=#FAFAFA;strokeColor=#3C708A;&quot; vertex=&quot;1&quot; parent=&quot;1&quot;&gt;&#10;          &lt;mxGeometry x=&quot;513&quot; y=&quot;103&quot; width=&quot;50&quot; height=&quot;50&quot; as=&quot;geometry&quot; /&gt;&#10;        &lt;/mxCell&gt;&#10;      &lt;/root&gt;&#10;    &lt;/mxGraphModel&gt;&#10;  &lt;/diagram&gt;&#10;&lt;/mxfile&gt;&#10;"><defs/><g><g><rect x="0" y="0" width="50" height="50" fill="none" stroke="none" pointer-events="all"/><path d="M 3.07 0 C 1.38 0 0 1.37 0 3.05 L 0 46.95 C 0 48.63 1.38 50 3.07 50 L 46.93 50 C 48.62 50 50 48.63 50 46.95 L 50 3.05 C 50 1.37 48.62 0 46.93 0 Z" fill="#fafafa" stroke="none" pointer-events="all"/><rect x="0" y="0" width="50" height="50" fill="none" stroke="none" pointer-events="all"/><path d="M 3.07 0 C 1.38 0 0 1.37 0 3.05 L 0 46.95 C 0 48.63 1.38 50 3.07 50 L 46.93 50 C 48.62 50 50 48.63 50 46.95 L 50 3.05 C 50 1.37 48.62 0 46.93 0 Z M 3.07 1.38 L 33.45 1.38 C 31.53 6.16 31.89 11.14 33.74 15.82 C 34.88 19.01 35.09 21.59 34.61 23.95 L 26.52 15.95 C 27.91 15.72 29.42 15.69 31.05 15.89 C 30.47 14.37 30.07 12.78 29.88 11.1 C 29.75 11.1 29.63 11.09 29.5 11.09 C 23.4 10.99 18.13 13.61 14.55 18.16 L 14.48 18.24 L 14.43 18.32 C 10.12 24.88 9.8 30.89 12.4 37.57 C 13.3 40.04 13.51 42.66 13.07 45.19 L 5.13 37.34 C 6.47 37.11 7.9 37.08 9.6 37.23 C 9.02 35.76 8.63 34.17 8.42 32.47 C 5.88 32.42 3.58 32.78 1.39 33.53 L 1.39 3.05 C 1.39 2.11 2.12 1.38 3.07 1.38 Z M 38.66 1.38 L 39.29 1.38 L 48.62 10.6 L 48.62 12.42 C 48.25 12.61 47.86 12.79 47.44 12.95 L 37.7 3.31 C 37.96 2.67 38.28 2.03 38.66 1.38 Z M 42.26 1.38 L 46.93 1.38 C 47.88 1.38 48.62 2.11 48.62 3.05 L 48.62 7.66 Z M 37.01 5.58 L 45.09 13.56 C 43.75 13.78 42.22 13.84 40.49 13.68 C 41.15 15.28 41.47 16.87 41.64 18.45 C 44.22 18.53 46.57 18.21 48.62 17.52 L 48.62 46.95 C 48.62 47.89 47.88 48.62 46.93 48.62 L 17.08 48.62 C 18.37 44.53 18.33 40.08 16.83 35.96 L 16.82 35.94 L 16.81 35.91 C 15.42 32.34 14.91 29.66 15.57 26.83 L 23.79 34.96 C 22.29 35.23 20.69 35.24 18.99 34.97 C 19.6 36.49 20.06 38.1 20.32 39.81 C 26.57 40.1 32.24 37.23 36.07 32.08 L 36.11 32.02 L 36.15 31.96 C 39.33 27.07 40.66 21.18 38.17 14.22 L 38.16 14.19 L 38.14 14.15 C 36.93 11.11 36.46 8.34 37.01 5.58 Z M 24.17 16.57 L 33.91 26.2 C 33.62 26.93 33.25 27.66 32.82 28.39 L 21.97 17.65 C 22.66 17.22 23.4 16.85 24.17 16.57 Z M 20.27 18.92 L 31.61 30.13 C 31.08 30.76 30.53 31.34 29.95 31.86 L 18.6 20.64 C 19.13 20.01 19.69 19.43 20.27 18.92 Z M 17.43 22.42 L 28.28 33.15 C 27.58 33.61 26.85 33.99 26.09 34.29 L 16.31 24.62 C 16.61 23.92 16.98 23.19 17.43 22.42 Z M 2.79 37.96 L 12.47 47.54 C 12.35 47.9 12.21 48.26 12.06 48.62 L 10.19 48.62 L 1.39 39.92 L 1.39 38.54 C 1.86 38.32 2.32 38.13 2.79 37.96 Z M 1.39 42.86 L 7.22 48.62 L 3.07 48.62 C 2.12 48.62 1.39 47.89 1.39 46.95 Z" fill="#3c708a" stroke="none" pointer-events="all"/></g></g></svg>